…
``` r
nyc_transit_data <- read_csv("./data/NYC_Transit_Subway_Entrance_And_Exit_Data.csv",col_types= cols(Route8 = "c", Route9 = "c",Route10 = "c",Route11 = "c")) %>%   janitor::clean_names() %>%
  select(line, station_name, station_latitude, station_longitude,route1:route11, entry, vending, entrance_type, ada) %>% 
  mutate(entry = ifelse(entry == "YES", TRUE, FALSE))

nyc_transit_data
```

    ## # A tibble: 1,868 × 19
    ##    line     station_name station_latitude station_longitude route1 route2 route3
    ##    <chr>    <chr>                   <dbl>             <dbl> <chr>  <chr>  <chr> 
    ##  1 4 Avenue 25th St                  40.7             -74.0 R      <NA>   <NA>  
    ##  2 4 Avenue 25th St                  40.7             -74.0 R      <NA>   <NA>  
    ##  3 4 Avenue 36th St                  40.7             -74.0 N      R      <NA>  
    ##  4 4 Avenue 36th St                  40.7             -74.0 N      R      <NA>  
    ##  5 4 Avenue 36th St                  40.7             -74.0 N      R      <NA>  
    ##  6 4 Avenue 45th St                  40.6             -74.0 R      <NA>   <NA>  
    ##  7 4 Avenue 45th St                  40.6             -74.0 R      <NA>   <NA>  
    ##  8 4 Avenue 45th St                  40.6             -74.0 R      <NA>   <NA>  
    ##  9 4 Avenue 45th St                  40.6             -74.0 R      <NA>   <NA>  
    ## 10 4 Avenue 53rd St                  40.6             -74.0 R      <NA>   <NA>  
    ## # ℹ 1,858 more rows
    ## # ℹ 12 more variables: route4 <chr>, route5 <chr>, route6 <chr>, route7 <chr>,
    ## #   route8 <chr>, route9 <chr>, route10 <chr>, route11 <chr>, entry <lgl>,
    ## #   vending <chr>, entrance_type <chr>, ada <lgl>
…
Reformatting the data to make route number and route name distinct
variables

``` r
nyc_transit_reformat_data <- nyc_transit_data %>%
  pivot_longer(route1:route11, 
               names_to = "route_number", 
               values_to = "route_name")

nyc_transit_reformat_data
```

    ## # A tibble: 20,548 × 10
    ##    line     station_name station_latitude station_longitude entry vending
    ##    <chr>    <chr>                   <dbl>             <dbl> <lgl> <chr>  
    ##  1 4 Avenue 25th St                  40.7             -74.0 TRUE  YES    
    ##  2 4 Avenue 25th St                  40.7             -74.0 TRUE  YES    
    ##  3 4 Avenue 25th St                  40.7             -74.0 TRUE  YES    
    ##  4 4 Avenue 25th St                  40.7             -74.0 TRUE  YES    
    ##  5 4 Avenue 25th St                  40.7             -74.0 TRUE  YES    
    ##  6 4 Avenue 25th St                  40.7             -74.0 TRUE  YES    
    ##  7 4 Avenue 25th St                  40.7             -74.0 TRUE  YES    
    ##  8 4 Avenue 25th St                  40.7             -74.0 TRUE  YES    
    ##  9 4 Avenue 25th St                  40.7             -74.0 TRUE  YES    
    ## 10 4 Avenue 25th St                  40.7             -74.0 TRUE  YES    
    ## # ℹ 20,538 more rows
    ## # ℹ 4 more variables: entrance_type <chr>, ada <lgl>, route_number <chr>,
    ## #   route_name <chr>
…
professor_trash_wheel_data <- professor_trash_wheel_data %>%
  mutate(collection_year = as.character(collection_year))

gwynnda_trash_wheel_data <- gwynnda_trash_wheel_data %>%
  mutate(collection_year = as.character(collection_year))

combined_trash_wheel_data <- bind_rows(mr_trash_wheel_data, 
                                       professor_trash_wheel_data, 
                                       gwynnda_trash_wheel_data)

combined_trash_wheel_data
```

    ## # A tibble: 1,033 × 15
    ##    dumpster collection_month collection_year date                weight_tons
    ##       <dbl> <chr>            <chr>           <dttm>                    <dbl>
    ##  1        1 May              2014            2014-05-16 00:00:00        4.31
    ##  2        2 May              2014            2014-05-16 00:00:00        2.74
    ##  3        3 May              2014            2014-05-16 00:00:00        3.45
    ##  4        4 May              2014            2014-05-17 00:00:00        3.1 
    ##  5        5 May              2014            2014-05-17 00:00:00        4.06
    ##  6        6 May              2014            2014-05-20 00:00:00        2.71
    ##  7        7 May              2014            2014-05-21 00:00:00        1.91
    ##  8        8 May              2014            2014-05-28 00:00:00        3.7 
    ##  9        9 June             2014            2014-06-05 00:00:00        2.52
    ## 10       10 June             2014            2014-06-11 00:00:00        3.76
    ## # ℹ 1,023 more rows
    ## # ℹ 10 more variables: volume_cubic_yards <dbl>,
    ## #   plastic_bottles_collected <dbl>, polystyrene_collected <dbl>,
    ## #   cigarette_butts_collected <dbl>, glass_bottles_collected <dbl>,
    ## #   plastic_bags_collected <dbl>, wrappers_collected <dbl>,
    ## #   sports_balls_collected <int>, homes_powered <dbl>, trash_wheel <chr>
…
Creating a reader-friendly table for star baker/winner of each episode
from S5 to S10.

``` r
star_bakers_or_winners <- final_dataset %>%
  filter(series > 4) %>%  
  select(series, episode, baker, result) %>%
  filter(result %in% c("STAR BAKER", "WINNER")) %>%
  arrange(series, episode) 

star_bakers_or_winners
```

    ## # A tibble: 60 × 4
    ##    series episode baker   result    
    ##     <dbl>   <dbl> <chr>   <chr>     
    ##  1      5       1 Nancy   STAR BAKER
    ##  2      5       2 Richard STAR BAKER
    ##  3      5       3 Luis    STAR BAKER
    ##  4      5       4 Richard STAR BAKER
    ##  5      5       5 Kate    STAR BAKER
    ##  6      5       6 Chetna  STAR BAKER
    ##  7      5       7 Richard STAR BAKER
    ##  8      5       8 Richard STAR BAKER
    ##  9      5       9 Richard STAR BAKER
    ## 10      5      10 Nancy   WINNER    
    ## # ℹ 50 more rows
…
